yearID,playerID,regularseason,regularWinLoss,era_avg,era_winloss
1884,keefeti01,2.0,1.0,4.0,0.0
1884,radboch01,2.0,1.0,0.0,1.0
1884,becanbu01,4.0,1.0,11.0,0.0
1885,clarkjo01,2.0,1.0,1.0,0.0
1885,foutzda01,3.0,1.0,1.0,1.0
1885,carutbo01,3.0,1.0,2.0,1.0
1885,mccorji01,3.0,1.0,2.0,1.0
1886,willine01,6.0,1.0,5.0,0.0
1886,foutzda01,3.0,1.0,4.0,1.0
1886,mccorji01,3.0,1.0,7.0,0.0
